Example H matrix with lambda=0 and n=5 
     0     0     0     0     1
     0     0     0    -1    -1
     0     0     1     1     0
     0    -1    -1     0     0
     1     1     0     0     0

The following matrices are general forms of X for each dimension:

Dimension: 6 
    "x1"    "x2"    "x3"    "0"     "0"     "0" 
    "0"     "x1"    "x2"    "0"     "0"     "0" 
    "0"     "0"     "x1"    "0"     "0"     "0" 
    "0"     "0"     "0"     "x1"    "0"     "0" 
    "0"     "0"     "0"     "x2"    "x1"    "0" 
    "0"     "0"     "0"     "x3"    "x2"    "x1"

Dimension: 8 
    "x1"    "x2"    "x3"    "x4"    "0"     "0"     "0"     "0" 
    "0"     "x1"    "x2"    "x3"    "0"     "0"     "0"     "0" 
    "0"     "0"     "x1"    "x2"    "0"     "0"     "0"     "0" 
    "0"     "0"     "0"     "x1"    "0"     "0"     "0"     "0" 
    "0"     "0"     "0"     "0"     "x1"    "0"     "0"     "0" 
    "0"     "0"     "0"     "0"     "x2"    "x1"    "0"     "0" 
    "0"     "0"     "0"     "0"     "x3"    "x2"    "x1"    "0" 
    "0"     "0"     "0"     "0"     "x4"    "x3"    "x2"    "x1"

Dimension: 10 
    "x1"    "x2"    "x3"    "x4"    "x5"    "0"     "0"     "0"     "0"     "0" 
    "0"     "x1"    "x2"    "x3"    "x4"    "0"     "0"     "0"     "0"     "0" 
    "0"     "0"     "x1"    "x2"    "x3"    "0"     "0"     "0"     "0"     "0" 
    "0"     "0"     "0"     "x1"    "x2"    "0"     "0"     "0"     "0"     "0" 
    "0"     "0"     "0"     "0"     "x1"    "0"     "0"     "0"     "0"     "0" 
    "0"     "0"     "0"     "0"     "0"     "x1"    "0"     "0"     "0"     "0" 
    "0"     "0"     "0"     "0"     "0"     "x2"    "x1"    "0"     "0"     "0" 
    "0"     "0"     "0"     "0"     "0"     "x3"    "x2"    "x1"    "0"     "0" 
    "0"     "0"     "0"     "0"     "0"     "x4"    "x3"    "x2"    "x1"    "0" 
    "0"     "0"     "0"     "0"     "0"     "x5"    "x4"    "x3"    "x2"    "x1"

Dimension: 12 
    "x1"    "x2"    "x3"    "x4"    "x5"    "x6"    "0"     "0"     "0"     "0"     "0"     "0" 
    "0"     "x1"    "x2"    "x3"    "x4"    "x5"    "0"     "0"     "0"     "0"     "0"     "0" 
    "0"     "0"     "x1"    "x2"    "x3"    "x4"    "0"     "0"     "0"     "0"     "0"     "0" 
    "0"     "0"     "0"     "x1"    "x2"    "x3"    "0"     "0"     "0"     "0"     "0"     "0" 
    "0"     "0"     "0"     "0"     "x1"    "x2"    "0"     "0"     "0"     "0"     "0"     "0" 
    "0"     "0"     "0"     "0"     "0"     "x1"    "0"     "0"     "0"     "0"     "0"     "0" 
    "0"     "0"     "0"     "0"     "0"     "0"     "x1"    "0"     "0"     "0"     "0"     "0" 
    "0"     "0"     "0"     "0"     "0"     "0"     "x2"    "x1"    "0"     "0"     "0"     "0" 
    "0"     "0"     "0"     "0"     "0"     "0"     "x3"    "x2"    "x1"    "0"     "0"     "0" 
    "0"     "0"     "0"     "0"     "0"     "0"     "x4"    "x3"    "x2"    "x1"    "0"     "0" 
    "0"     "0"     "0"     "0"     "0"     "0"     "x5"    "x4"    "x3"    "x2"    "x1"    "0" 
    "0"     "0"     "0"     "0"     "0"     "0"     "x6"    "x5"    "x4"    "x3"    "x2"    "x1"

Dimension: 14 
    "x1"    "x2"    "x3"    "x4"    "x5"    "x6"    "x7"    "0"     "0"     "0"     "0"     "0"     "0"     "0" 
    "0"     "x1"    "x2"    "x3"    "x4"    "x5"    "x6"    "0"     "0"     "0"     "0"     "0"     "0"     "0" 
    "0"     "0"     "x1"    "x2"    "x3"    "x4"    "x5"    "0"     "0"     "0"     "0"     "0"     "0"     "0" 
    "0"     "0"     "0"     "x1"    "x2"    "x3"    "x4"    "0"     "0"     "0"     "0"     "0"     "0"     "0" 
    "0"     "0"     "0"     "0"     "x1"    "x2"    "x3"    "0"     "0"     "0"     "0"     "0"     "0"     "0" 
    "0"     "0"     "0"     "0"     "0"     "x1"    "x2"    "0"     "0"     "0"     "0"     "0"     "0"     "0" 
    "0"     "0"     "0"     "0"     "0"     "0"     "x1"    "0"     "0"     "0"     "0"     "0"     "0"     "0" 
    "0"     "0"     "0"     "0"     "0"     "0"     "0"     "x1"    "0"     "0"     "0"     "0"     "0"     "0" 
    "0"     "0"     "0"     "0"     "0"     "0"     "0"     "x2"    "x1"    "0"     "0"     "0"     "0"     "0" 
    "0"     "0"     "0"     "0"     "0"     "0"     "0"     "x3"    "x2"    "x1"    "0"     "0"     "0"     "0" 
    "0"     "0"     "0"     "0"     "0"     "0"     "0"     "x4"    "x3"    "x2"    "x1"    "0"     "0"     "0" 
    "0"     "0"     "0"     "0"     "0"     "0"     "0"     "x5"    "x4"    "x3"    "x2"    "x1"    "0"     "0" 
    "0"     "0"     "0"     "0"     "0"     "0"     "0"     "x6"    "x5"    "x4"    "x3"    "x2"    "x1"    "0" 
    "0"     "0"     "0"     "0"     "0"     "0"     "0"     "x7"    "x6"    "x5"    "x4"    "x3"    "x2"    "x1"