Example Jordan matrix with lambda=0 and n=5 
     0     1     0     0     0
     0     0     1     0     0
     0     0     0     1     0
     0     0     0     0     1
     0     0     0     0     0

The following matrices are general forms of X for each dimension:

Dimension: 3 
    "x1"    "x2"    "0" 
    "0"     "x1"    "0" 
    "0"     "x2"    "x1"

Dimension: 4 
    "x1"    "0"     "x2"    "0" 
    "0"     "x1"    "0"     "0" 
    "0"     "0"     "x1"    "0" 
    "0"     "x2"    "0"     "x1"

Dimension: 5 
    "x1"    "x2"    "0"     "x3"    "0" 
    "0"     "x1"    "0"     "0"     "0" 
    "0"     "x2"    "x1"    "x2"    "0" 
    "0"     "0"     "0"     "x1"    "0" 
    "0"     "x3"    "0"     "x2"    "x1"

Dimension: 6 
    "x1"    "0"     "x2"    "0"     "x3"    "0" 
    "0"     "x1"    "0"     "0"     "0"     "0" 
    "0"     "0"     "x1"    "0"     "x2"    "0" 
    "0"     "x2"    "0"     "x1"    "0"     "0" 
    "0"     "0"     "0"     "0"     "x1"    "0" 
    "0"     "x3"    "0"     "x2"    "0"     "x1"

Dimension: 7 
    "x1"    "x2"    "0"     "x3"    "0"     "x4"    "0" 
    "0"     "x1"    "0"     "0"     "0"     "0"     "0" 
    "0"     "x2"    "x1"    "x2"    "0"     "x3"    "0" 
    "0"     "0"     "0"     "x1"    "0"     "0"     "0" 
    "0"     "x3"    "0"     "x2"    "x1"    "x2"    "0" 
    "0"     "0"     "0"     "0"     "0"     "x1"    "0" 
    "0"     "x4"    "0"     "x3"    "0"     "x2"    "x1"

Dimension: 8 
    "x1"    "0"     "x2"    "0"     "x3"    "0"     "x4"    "0" 
    "0"     "x1"    "0"     "0"     "0"     "0"     "0"     "0" 
    "0"     "0"     "x1"    "0"     "x2"    "0"     "x3"    "0" 
    "0"     "x2"    "0"     "x1"    "0"     "0"     "0"     "0" 
    "0"     "0"     "0"     "0"     "x1"    "0"     "x2"    "0" 
    "0"     "x3"    "0"     "x2"    "0"     "x1"    "0"     "0" 
    "0"     "0"     "0"     "0"     "0"     "0"     "x1"    "0" 
    "0"     "x4"    "0"     "x3"    "0"     "x2"    "0"     "x1"

Dimension: 9 
    "x1"    "x2"    "0"     "x3"    "0"     "x4"    "0"     "x5"    "0" 
    "0"     "x1"    "0"     "0"     "0"     "0"     "0"     "0"     "0" 
    "0"     "x2"    "x1"    "x2"    "0"     "x3"    "0"     "x4"    "0" 
    "0"     "0"     "0"     "x1"    "0"     "0"     "0"     "0"     "0" 
    "0"     "x3"    "0"     "x2"    "x1"    "x2"    "0"     "x3"    "0" 
    "0"     "0"     "0"     "0"     "0"     "x1"    "0"     "0"     "0" 
    "0"     "x4"    "0"     "x3"    "0"     "x2"    "x1"    "x2"    "0" 
    "0"     "0"     "0"     "0"     "0"     "0"     "0"     "x1"    "0" 
    "0"     "x5"    "0"     "x4"    "0"     "x3"    "0"     "x2"    "x1"

Dimension: 10 
    "x1"    "0"     "x2"    "0"     "x3"    "0"     "x4"    "0"     "x5"    "0" 
    "0"     "x1"    "0"     "0"     "0"     "0"     "0"     "0"     "0"     "0" 
    "0"     "0"     "x1"    "0"     "x2"    "0"     "x3"    "0"     "x4"    "0" 
    "0"     "x2"    "0"     "x1"    "0"     "0"     "0"     "0"     "0"     "0" 
    "0"     "0"     "0"     "0"     "x1"    "0"     "x2"    "0"     "x3"    "0" 
    "0"     "x3"    "0"     "x2"    "0"     "x1"    "0"     "0"     "0"     "0" 
    "0"     "0"     "0"     "0"     "0"     "0"     "x1"    "0"     "x2"    "0" 
    "0"     "x4"    "0"     "x3"    "0"     "x2"    "0"     "x1"    "0"     "0" 
    "0"     "0"     "0"     "0"     "0"     "0"     "0"     "0"     "x1"    "0" 
    "0"     "x5"    "0"     "x4"    "0"     "x3"    "0"     "x2"    "0"     "x1"